EXP3/simulation/qsim/EXP3.msim.vcd
$comment
	File created using the following command:
		vcd file EXP3.msim.vcd -direction
$end
$date
	Sun May 05 21:23:22 2024
$end
$version
	ModelSim Version 10.1d
$end
$timescale
	1ps
$end
$scope module bcdCounter_vlg_vec_tst $end
$var reg 1 ! clk $end
$var reg 1 " reset $end
$var wire 1 # outp [3] $end
$var wire 1 $ outp [2] $end
$var wire 1 % outp [1] $end
$var wire 1 & outp [0] $end
$var wire 1 ' sampler $end
$scope module i1 $end
$var wire 1 ( gnd $end
$var wire 1 ) vcc $end
$var wire 1 * unknown $end
$var tri1 1 + devclrn $end
$var tri1 1 , devpor $end
$var tri1 1 - devoe $end
$var wire 1 . outp[0]~output_o $end
$var wire 1 / outp[1]~output_o $end
$var wire 1 0 outp[2]~output_o $end
$var wire 1 1 outp[3]~output_o $end
$var wire 1 2 clk~input_o $end
$var wire 1 3 WideOr0~0_combout $end
$var wire 1 4 reset~input_o $end
$var wire 1 5 outp[2]~reg0_q $end
$var wire 1 6 outp~1_combout $end
$var wire 1 7 outp[3]~reg0_q $end
$var wire 1 8 outp~0_combout $end
$var wire 1 9 outp[1]~reg0_q $end
$var wire 1 : WideOr1~0_combout $end
$var wire 1 ; outp[0]~reg0_q $end
$upscope $end
$upscope $end
$enddefinitions $end
#0
$dumpvars
0!
0"
0&
0%
0$
0#
x'
0(
1)
x*
1+
1,
1-
0.
0/
00
01
02
03
04
05
06
07
08
09
1:
0;
$end
#10000
1!
12
0'
1;
18
0:
1.
1&
#20000
0!
02
1'
#30000
1!
12
0'
0;
19
1:
0.
1/
0&
1%
#40000
0!
02
1'
#50000
1!
12
0'
1;
13
08
0:
1.
1&
#60000
0!
02
1'
#70000
1!
12
0'
0;
09
15
1:
0.
0/
10
0&
0%
1$
#79000
0!
02
1'
#90000
1!
12
0'
1;
18
0:
1.
1&
#100000
0!
02
1'
#110000
1!
12
0'
0;
19
1:
0.
1/
0&
1%
#120000
0!
02
1'
#130000
1!
12
0'
1;
03
16
08
0:
1.
1&
#140000
0!
02
1'
#150000
1!
12
0'
0;
09
17
05
1:
0.
0/
11
00
0&
0%
1#
0$
#159000
0!
02
1'
#170000
1!
12
0'
1;
06
0:
1.
1&
#180000
0!
02
1'
#190000
1!
12
0'
0;
07
1:
0.
01
0&
0#
#200000
0!
02
1'
#210000
1!
12
0'
1;
18
0:
1.
1&
#220000
0!
02
1'
#230000
1!
12
0'
0;
19
1:
0.
1/
0&
1%
#240000
0!
02
1'
#250000
1!
12
0'
1;
13
08
0:
1.
1&
#260000
0!
02
1'
#270000
1"
1!
14
12
0'
0;
09
03
1:
0.
0/
0&
0%
#280000
0"
0!
04
02
1'
#290000
1!
12
0'
1;
18
0:
1.
1&
#300000
0!
02
1'
#310000
1!
12
0'
0;
19
1:
0.
1/
0&
1%
